# This file uses centimeters as units for non-parametric coordinates.

mtllib Basket.mtl
g default
v -0.054073 2.635620 0.681014
v 0.054073 2.635620 0.681014
v -0.054073 2.722513 0.681014
v 0.054073 2.722513 0.681014
v -0.054073 2.722513 -0.698696
v 0.054073 2.722513 -0.698696
v -0.054073 2.635620 -0.698696
v 0.054073 2.635620 -0.698696
v 0.054073 2.722513 -0.611603
v -0.054073 2.722513 -0.611603
v -0.054073 2.635620 -0.611603
v 0.054073 2.635620 -0.611603
v 0.054073 2.722513 0.600001
v -0.054073 2.722513 0.600001
v -0.054073 2.635620 0.600001
v 0.054073 2.635620 0.600001
v -0.054073 1.424620 0.600001
v 0.054073 1.424620 0.600001
v 0.054073 1.424620 0.681014
v -0.054073 1.424620 0.681014
v -0.054073 1.424620 -0.698696
v 0.054073 1.424620 -0.698696
v 0.054073 1.424620 -0.611603
v -0.054073 1.424620 -0.611603
vt 0.375000 0.000000
vt 0.625000 0.000000
vt 0.375000 0.250000
vt 0.625000 0.250000
vt 0.375000 0.500000
vt 0.625000 0.500000
vt 0.375000 0.750000
vt 0.625000 0.750000
vt 0.375000 1.000000
vt 0.625000 1.000000
vt 0.875000 0.000000
vt 0.875000 0.250000
vt 0.125000 0.000000
vt 0.125000 0.250000
vt 0.625000 0.484219
vt 0.859219 0.250000
vt 0.140781 0.250000
vt 0.375000 0.484219
vt 0.140781 0.000000
vt 0.375000 0.765781
vt 0.625000 0.765781
vt 0.859219 0.000000
vt 0.625000 0.264679
vt 0.639679 0.250000
vt 0.360321 0.250000
vt 0.375000 0.264679
vt 0.360321 0.000000
vt 0.375000 0.985321
vt 0.625000 0.985321
vt 0.639679 0.000000
vt 0.375000 0.985321
vt 0.625000 0.985321
vt 0.625000 1.000000
vt 0.375000 1.000000
vt 0.375000 0.750000
vt 0.625000 0.750000
vt 0.625000 0.765781
vt 0.375000 0.765781
vn 0.000000 0.000000 1.000000
vn 0.000000 0.000000 1.000000
vn 0.000000 0.000000 1.000000
vn 0.000000 0.000000 1.000000
vn 0.000000 1.000000 0.000000
vn 0.000000 1.000000 0.000000
vn 0.000000 1.000000 0.000000
vn 0.000000 1.000000 0.000000
vn 0.000000 0.000000 -1.000000
vn 0.000000 0.000000 -1.000000
vn 0.000000 0.000000 -1.000000
vn 0.000000 0.000000 -1.000000
vn 0.000000 -1.000000 0.000000
vn 0.000000 -1.000000 0.000000
vn 0.000000 -1.000000 0.000000
vn 0.000000 -1.000000 0.000000
vn 1.000000 0.000000 0.000000
vn 1.000000 0.000000 0.000000
vn 1.000000 0.000000 0.000000
vn 1.000000 0.000000 0.000000
vn -1.000000 -0.000000 0.000000
vn -1.000000 0.000000 0.000000
vn -1.000000 0.000000 0.000000
vn -1.000000 -0.000000 0.000000
vn 0.000000 1.000000 0.000000
vn 0.000000 1.000000 0.000000
vn 0.000000 1.000000 0.000000
vn 0.000000 1.000000 0.000000
vn -1.000000 0.000000 0.000000
vn -1.000000 -0.000000 0.000000
vn -1.000000 -0.000000 0.000000
vn -1.000000 0.000000 0.000000
vn 0.000000 -1.000000 0.000000
vn 0.000000 -1.000000 0.000000
vn 0.000000 -1.000000 0.000000
vn 0.000000 -1.000000 0.000000
vn 1.000000 0.000000 0.000000
vn 1.000000 0.000000 0.000000
vn 1.000000 0.000000 0.000000
vn 1.000000 0.000000 0.000000
vn 0.000000 -1.000000 0.000000
vn 0.000000 -1.000000 0.000000
vn 0.000000 -1.000000 0.000000
vn 0.000000 -1.000000 0.000000
vn 0.000000 0.000000 -1.000000
vn 0.000000 0.000000 -1.000000
vn 0.000000 0.000000 -1.000000
vn 0.000000 0.000000 -1.000000
vn 1.000000 0.000000 0.000000
vn 1.000000 0.000000 0.000000
vn 0.000000 0.000000 1.000000
vn 0.000000 0.000000 1.000000
vn -1.000000 0.000000 0.000000
vn -1.000000 0.000000 0.000000
vn 0.000000 0.000000 -1.000000
vn 0.000000 0.000000 -1.000000
vn 1.000000 0.000000 0.000000
vn 1.000000 0.000000 0.000000
vn 0.000000 0.000000 1.000000
vn 0.000000 0.000000 1.000000
vn 0.000000 0.000000 1.000000
vn 0.000000 0.000000 1.000000
vn -1.000000 0.000000 0.000000
vn -1.000000 0.000000 0.000000
s 1
g pCube2 group1
usemtl initialShadingGroup
f 1/1/1 2/2/2 4/4/3 3/3/4
s 2
f 3/3/5 4/4/6 13/23/7 14/26/8
s 3
f 5/5/9 6/6/10 8/8/11 7/7/12
s off
f 17/31/13 18/32/14 19/33/15 20/34/16
s 4
f 2/2/17 16/30/18 13/24/19 4/4/20
s 5
f 15/27/21 1/1/22 3/3/23 14/25/24
s 2
f 10/18/25 9/15/26 6/6/27 5/5/28
s 5
f 7/13/29 11/19/30 10/17/31 5/14/32
s off
f 21/35/33 22/36/34 23/37/35 24/38/36
s 4
f 9/16/37 12/22/38 8/11/39 6/12/40
s 2
f 14/26/8 13/23/7 9/15/26 10/18/25
s 5
f 11/19/30 15/27/21 14/25/24 10/17/31
s off
f 11/20/41 12/21/42 16/29/43 15/28/44
s 4
f 13/24/19 16/30/18 12/22/38 9/16/37
s off
f 15/28/45 16/29/46 18/32/47 17/31/48
s 4
f 16/29/18 2/10/17 19/33/49 18/32/50
s 1
f 2/10/2 1/9/1 20/34/51 19/33/52
s 5
f 1/9/22 15/28/21 17/31/53 20/34/54
s 3
f 7/7/12 8/8/11 22/36/55 21/35/56
s 4
f 8/8/39 12/21/38 23/37/57 22/36/58
s off
f 12/21/59 11/20/60 24/38/61 23/37/62
s 5
f 11/20/30 7/7/29 21/35/63 24/38/64
g default
v -0.880615 0.587091 0.628316
v 0.880615 0.587091 0.628316
v -1.115417 1.567066 0.628316
v 1.115417 1.567066 0.628316
v -1.115417 1.567066 -0.628316
v 1.115417 1.567066 -0.628316
v -0.880615 0.587091 -0.628316
v 0.880615 0.587091 -0.628316
v -1.067771 1.567066 0.578316
v 1.067771 1.567066 0.578316
v 1.067771 1.567066 -0.578316
v -1.067771 1.567066 -0.578316
v -0.842999 0.867066 0.578316
v 0.842999 0.867066 0.578316
v 0.842999 0.867066 -0.578316
v -0.842999 0.867066 -0.578316
v -0.903780 0.767066 0.628316
v 0.903780 0.767066 0.628316
v 1.092252 1.367066 0.628316
v -1.092252 1.367066 0.628316
v -1.092252 1.367066 -0.628316
v 1.092252 1.367066 -0.628316
v 0.903780 0.767066 -0.628316
v -0.903780 0.767066 -0.628316
v -0.931447 0.758375 0.657316
v 0.931447 0.758375 0.657316
v 1.119919 1.358375 0.657316
v -1.119919 1.358375 0.657316
v -1.119919 1.358375 -0.657316
v 1.119919 1.358375 -0.657316
v 0.931447 0.758375 -0.657316
v -0.931447 0.758375 -0.657316
vt 0.375000 0.000000
vt 0.625000 0.000000
vt 0.375000 0.250000
vt 0.625000 0.250000
vt 0.375000 0.500000
vt 0.625000 0.500000
vt 0.375000 0.750000
vt 0.625000 0.750000
vt 0.375000 1.000000
vt 0.625000 1.000000
vt 0.875000 0.000000
vt 0.875000 0.250000
vt 0.125000 0.000000
vt 0.125000 0.250000
vt 0.375000 0.250000
vt 0.625000 0.250000
vt 0.625000 0.500000
vt 0.375000 0.500000
vt 0.375000 0.250000
vt 0.625000 0.250000
vt 0.625000 0.500000
vt 0.375000 0.500000
vt 0.375000 0.000000
vt 0.625000 0.000000
vt 0.625000 0.250000
vt 0.375000 0.250000
vt 0.375000 0.500000
vt 0.625000 0.500000
vt 0.625000 0.750000
vt 0.375000 0.750000
vt 0.875000 0.000000
vt 0.875000 0.250000
vt 0.125000 0.000000
vt 0.125000 0.250000
vt 0.375000 0.000000
vt 0.625000 0.000000
vt 0.625000 0.250000
vt 0.375000 0.250000
vt 0.375000 0.500000
vt 0.625000 0.500000
vt 0.625000 0.750000
vt 0.375000 0.750000
vt 0.875000 0.000000
vt 0.875000 0.250000
vt 0.125000 0.000000
vt 0.125000 0.250000
vn 0.000000 0.000000 1.000000
vn 0.000000 0.000000 1.000000
vn 0.000000 0.000000 1.000000
vn 0.000000 0.000000 1.000000
vn 0.000000 1.000000 0.000000
vn 0.000000 1.000000 0.000000
vn 0.000000 1.000000 0.000000
vn 0.000000 1.000000 0.000000
vn 0.000000 0.000000 -1.000000
vn 0.000000 0.000000 -1.000000
vn 0.000000 0.000000 -1.000000
vn 0.000000 0.000000 -1.000000
vn 0.000000 -1.000000 0.000000
vn 0.000000 -1.000000 0.000000
vn 0.000000 -1.000000 0.000000
vn 0.000000 -1.000000 0.000000
vn 0.954039 -0.299682 0.000000
vn 0.954039 -0.299682 0.000000
vn 0.954039 -0.299682 0.000000
vn 0.954039 -0.299682 0.000000
vn -0.954039 -0.299682 -0.000000
vn -0.954039 -0.299682 -0.000000
vn -0.954039 -0.299682 -0.000000
vn -0.954039 -0.299682 -0.000000
vn 0.000000 1.000000 0.000000
vn 0.000000 1.000000 0.000000
vn 0.000000 1.000000 0.000000
vn 0.000000 1.000000 0.000000
vn 0.000000 1.000000 0.000000
vn 0.000000 1.000000 0.000000
vn 0.000000 1.000000 0.000000
vn 0.000000 1.000000 0.000000
vn 0.000000 0.000000 -1.000000
vn 0.000000 0.000000 -1.000000
vn 0.000000 0.000000 -1.000000
vn 0.000000 0.000000 -1.000000
vn -0.952119 0.305728 0.000000
vn -0.952119 0.305728 0.000000
vn -0.952119 0.305728 0.000000
vn -0.952119 0.305728 0.000000
vn 0.000000 0.000000 1.000000
vn 0.000000 0.000000 1.000000
vn 0.000000 0.000000 1.000000
vn 0.000000 0.000000 1.000000
vn 0.952119 0.305728 0.000000
vn 0.952119 0.305728 0.000000
vn 0.952119 0.305728 0.000000
vn 0.952119 0.305728 0.000000
vn 0.000000 0.000000 1.000000
vn 0.000000 0.000000 1.000000
vn 0.000000 0.000000 1.000000
vn 0.000000 0.000000 1.000000
vn 0.000000 0.000000 1.000000
vn 0.000000 0.000000 1.000000
vn 0.000000 0.000000 1.000000
vn 0.000000 0.000000 1.000000
vn 0.000000 0.000000 -1.000000
vn 0.000000 0.000000 -1.000000
vn 0.000000 0.000000 -1.000000
vn 0.000000 0.000000 -1.000000
vn 0.000000 0.000000 -1.000000
vn 0.000000 0.000000 -1.000000
vn 0.000000 0.000000 -1.000000
vn 0.000000 0.000000 -1.000000
vn 0.991818 -0.127660 0.000000
vn 0.991818 -0.127660 0.000000
vn 0.991818 -0.127660 0.000000
vn 0.991818 -0.127660 0.000000
vn 0.993359 -0.115057 0.000000
vn 0.993359 -0.115057 0.000000
vn 0.993359 -0.115057 0.000000
vn 0.993359 -0.115057 0.000000
vn -0.991818 -0.127660 0.000000
vn -0.991818 -0.127660 0.000000
vn -0.991818 -0.127660 0.000000
vn -0.991818 -0.127660 0.000000
vn -0.993359 -0.115057 0.000000
vn -0.993359 -0.115057 0.000000
vn -0.993359 -0.115057 0.000000
vn -0.993359 -0.115057 0.000000
vn 0.141316 -0.977267 -0.158047
vn -0.141316 -0.977267 -0.158047
vn -0.076981 -0.972883 -0.218112
vn 0.076981 -0.972883 -0.218111
vn 0.127176 0.976951 0.171445
vn -0.127176 0.976951 0.171445
vn -0.066632 0.971480 0.227566
vn 0.066632 0.971480 0.227566
vn -0.127176 0.976951 -0.171445
vn 0.127176 0.976951 -0.171445
vn 0.066632 0.971480 -0.227566
vn -0.066632 0.971480 -0.227566
vn -0.141316 -0.977267 0.158047
vn 0.141316 -0.977267 0.158047
vn 0.076981 -0.972883 0.218112
vn -0.076981 -0.972883 0.218111
s off
g group1 pCube1
usemtl initialShadingGroup
f 49/73/65 50/74/66 51/75/67 52/76/68
f 37/57/69 38/58/70 39/59/71 40/60/72
f 53/77/73 54/78/74 55/79/75 56/80/76
f 31/45/77 32/46/78 26/48/79 25/47/80
f 50/74/81 55/81/82 54/82/83 51/75/84
f 56/83/85 49/73/86 52/76/87 53/84/88
s 1
f 27/41/89 28/42/90 34/54/91 33/53/92
f 28/42/90 30/44/93 35/55/94 34/54/91
f 30/44/93 29/43/95 36/56/96 35/55/94
f 29/43/95 27/41/89 33/53/92 36/56/96
s off
f 33/53/97 34/54/98 38/58/99 37/57/100
f 34/54/101 35/55/102 39/59/103 38/58/104
f 35/55/105 36/56/106 40/60/107 39/59/108
f 36/56/109 33/53/110 37/57/111 40/60/112
f 25/39/113 26/40/114 42/62/115 41/61/116
f 28/42/117 27/41/118 44/64/119 43/63/120
f 29/43/121 30/44/122 46/66/123 45/65/124
f 32/46/125 31/45/126 48/68/127 47/67/128
f 26/40/129 32/49/130 47/69/131 42/62/132
f 30/50/133 28/42/134 43/63/135 46/70/136
f 31/51/137 25/39/138 41/61/139 48/71/140
f 27/41/141 29/52/142 45/72/143 44/64/144
s 2
f 41/61/145 42/62/146 50/74/147 49/73/148
s 3
f 43/63/149 44/64/150 52/76/151 51/75/152
f 45/65/153 46/66/154 54/78/155 53/77/156
s 2
f 47/67/157 48/68/158 56/80/159 55/79/160
f 42/62/146 47/69/157 55/81/160 50/74/147
s 3
f 46/70/154 43/63/149 51/75/152 54/82/155
s 2
f 48/71/158 41/61/145 49/73/148 56/83/159
s 3
f 44/64/150 45/72/153 53/84/156 52/76/151
