%YAML 1.1
%TAG !u! tag:unity3d.com,2011:
--- !u!114 &-2328812844320467122
MonoBehaviour:
  m_ObjectHideFlags: 0
  m_CorrespondingSourceObject: {fileID: 0}
  m_PrefabInstance: {fileID: 0}
  m_PrefabAsset: {fileID: 0}
  m_GameObject: {fileID: 8018363740241236245}
  m_Enabled: 1
  m_EditorHideFlags: 0
  m_Script: {fileID: 11500000, guid: 9a6610d2e704f1648819acc8d7460285, type: 3}
  m_Name: 
  m_EditorClassIdentifier: 
  CollisionTag: 
  Event: event:/ObjectImpact
  PlayEvent: 7
  StopEvent: 0
  AllowFadeout: 1
  TriggerOnce: 0
  Preload: 0
  Params: []
  OverrideAttenuation: 0
  OverrideMinDistance: 1
  OverrideMaxDistance: 20
--- !u!1001 &4456233859210055903
PrefabInstance:
  m_ObjectHideFlags: 0
  serializedVersion: 2
  m_Modification:
    m_TransformParent: {fileID: 0}
    m_Modifications:
    - target: {fileID: 5949618234469319114, guid: c262784bdc4094d4a92e0bf2b23178bf,
        type: 3}
      propertyPath: m_Name
      value: Chocolate Bar (Draggable)
      objectReference: {fileID: 0}
    - target: {fileID: 5949618234469319114, guid: c262784bdc4094d4a92e0bf2b23178bf,
        type: 3}
      propertyPath: m_Layer
      value: 8
      objectReference: {fileID: 0}
    - target: {fileID: 5949618234469319114, guid: c262784bdc4094d4a92e0bf2b23178bf,
        type: 3}
      propertyPath: m_TagString
      value: Obj
      objectReference: {fileID: 0}
    - target: {fileID: 6474657768204360560, guid: c262784bdc4094d4a92e0bf2b23178bf,
        type: 3}
      propertyPath: m_RootOrder
      value: 0
      objectReference: {fileID: 0}
    - target: {fileID: 6474657768204360560, guid: c262784bdc4094d4a92e0bf2b23178bf,
        type: 3}
      propertyPath: m_LocalPosition.x
      value: -7.6954193
      objectReference: {fileID: 0}
    - target: {fileID: 6474657768204360560, guid: c262784bdc4094d4a92e0bf2b23178bf,
        type: 3}
      propertyPath: m_LocalPosition.y
      value: 1.643
      objectReference: {fileID: 0}
    - target: {fileID: 6474657768204360560, guid: c262784bdc4094d4a92e0bf2b23178bf,
        type: 3}
      propertyPath: m_LocalPosition.z
      value: -12.75828
      objectReference: {fileID: 0}
    - target: {fileID: 6474657768204360560, guid: c262784bdc4094d4a92e0bf2b23178bf,
        type: 3}
      propertyPath: m_LocalRotation.w
      value: 0.7071067
      objectReference: {fileID: 0}
    - target: {fileID: 6474657768204360560, guid: c262784bdc4094d4a92e0bf2b23178bf,
        type: 3}
      propertyPath: m_LocalRotation.x
      value: -0.7071068
      objectReference: {fileID: 0}
    - target: {fileID: 6474657768204360560, guid: c262784bdc4094d4a92e0bf2b23178bf,
        type: 3}
      propertyPath: m_LocalRotation.y
      value: 0
      objectReference: {fileID: 0}
    - target: {fileID: 6474657768204360560, guid: c262784bdc4094d4a92e0bf2b23178bf,
        type: 3}
      propertyPath: m_LocalRotation.z
      value: -0
      objectReference: {fileID: 0}
    - target: {fileID: 6474657768204360560, guid: c262784bdc4094d4a92e0bf2b23178bf,
        type: 3}
      propertyPath: m_LocalEulerAnglesHint.x
      value: 0
      objectReference: {fileID: 0}
    - target: {fileID: 6474657768204360560, guid: c262784bdc4094d4a92e0bf2b23178bf,
        type: 3}
      propertyPath: m_LocalEulerAnglesHint.y
      value: 0
      objectReference: {fileID: 0}
    - target: {fileID: 6474657768204360560, guid: c262784bdc4094d4a92e0bf2b23178bf,
        type: 3}
      propertyPath: m_LocalEulerAnglesHint.z
      value: 0
      objectReference: {fileID: 0}
    - target: {fileID: 6795970950338293073, guid: c262784bdc4094d4a92e0bf2b23178bf,
        type: 3}
      propertyPath: m_CollisionDetection
      value: 2
      objectReference: {fileID: 0}
    m_RemovedComponents: []
  m_SourcePrefab: {fileID: 100100000, guid: c262784bdc4094d4a92e0bf2b23178bf, type: 3}
--- !u!1 &8018363740241236245 stripped
GameObject:
  m_CorrespondingSourceObject: {fileID: 5949618234469319114, guid: c262784bdc4094d4a92e0bf2b23178bf,
    type: 3}
  m_PrefabInstance: {fileID: 4456233859210055903}
  m_PrefabAsset: {fileID: 0}
